<?xml version="1.0" encoding="iso-8859-1"?>
<!-- Generator: Adobe Illustrator 19.0.0, SVG Export Plug-In . SVG Version: 6.00 Build 0)  -->
<svg version="1.1" id="Capa_1" xmlns="http://www.w3.org/2000/svg" xmlns:xlink="http://www.w3.org/1999/xlink" x="0px" y="0px"
	 viewBox="0 0 512.001 512.001" style="enable-background:new 0 0 512.001 512.001;" xml:space="preserve">
<path style="fill:#373C41;" d="M188.014,372.517c-5.567-0.894-9.355-6.132-8.461-11.699l13.098-81.544
	c2.476-15.414,16.979-25.903,32.393-23.427c15.414,2.476,25.903,16.979,23.427,32.393l-13.098,81.544
	c-0.894,5.567-6.132,9.355-11.699,8.461L188.014,372.517z"/>
<path style="fill:#272A2E;" d="M380.676,403.463c-5.567-0.894-9.355-6.132-8.461-11.699l13.456-83.77
	c2.278-14.185,16.621-23.677,32.036-21.201c15.414,2.476,26.063,15.982,23.785,30.167l-13.456,83.77
	c-0.894,5.567-6.132,9.355-11.699,8.461L380.676,403.463z"/>
<g>
	
		<rect x="191.437" y="330.557" transform="matrix(-0.9873 -0.1586 0.1586 -0.9873 335.9749 731.0754)" style="fill:#50555A;" width="11.448" height="43.148"/>
	
		<rect x="215.614" y="334.437" transform="matrix(-0.9873 -0.1586 0.1586 -0.9873 383.4085 742.6224)" style="fill:#50555A;" width="11.448" height="43.148"/>
	
		<rect x="384.103" y="361.498" transform="matrix(-0.9873 -0.1586 0.1586 -0.9873 713.9606 823.1249)" style="fill:#50555A;" width="11.448" height="43.148"/>
	
		<rect x="408.27" y="365.377" transform="matrix(-0.9873 -0.1586 0.1586 -0.9873 761.3748 834.6672)" style="fill:#50555A;" width="11.448" height="43.148"/>
</g>
<path style="fill:#D72846;" d="M203.492,221.745l-20.651-30.206c-2.812-4.114-1.757-9.729,2.356-12.541
	c4.115-2.813,9.729-1.757,12.542,2.356l20.651,30.206c2.812,4.114,1.757,9.729-2.356,12.541
	C211.92,226.914,206.305,225.859,203.492,221.745z"/>
<path style="fill:#F75C66;" d="M163.219,193.829l25.003,4.016c6.993,1.123,13.573-3.635,14.696-10.628l1.548-9.635
	c1.123-6.993-3.635-13.573-10.628-14.696l-25.003-4.016c-6.993-1.123-13.573,3.635-14.696,10.628l-1.548,9.635
	C151.468,186.126,156.226,192.706,163.219,193.829z"/>
<path style="fill:#D72846;" d="M441.691,262.856c-2.201-0.354-4.276-1.518-5.736-3.429c-3.026-3.959-2.27-9.622,1.689-12.649
	l29.071-22.219c3.959-3.026,9.623-2.27,12.648,1.69c3.026,3.959,2.27,9.622-1.689,12.649l-29.071,22.219
	C446.555,262.682,444.051,263.235,441.691,262.856z"/>
<path style="fill:#E64B55;" d="M495.593,247.217l-25.003-4.016c-6.993-1.123-11.752-7.703-10.628-14.696l1.548-9.635
	c1.123-6.993,7.703-11.752,14.696-10.628l25.003,4.016c6.993,1.123,11.752,7.703,10.628,14.696l-1.548,9.635
	C509.166,243.581,502.586,248.34,495.593,247.217z"/>
<polygon style="fill:#A0EBFF;" points="442.344,248.872 213.594,212.129 247.203,113.16 441.419,144.357 "/>
<path style="fill:#373C41;" d="M353.722,167.748l-30.882-4.96c-2.28-0.366-3.831-2.511-3.465-4.791l1.292-8.045
	c0.366-2.28,2.511-3.831,4.791-3.465l30.882,4.96c2.28,0.366,3.831,2.511,3.465,4.791l-1.292,8.045
	C358.147,166.563,356.002,168.114,353.722,167.748z"/>
<path style="fill:#D72846;" d="M454.81,259.332c0.087,3.464-1.372,6.788-3.981,9.068c-2.609,2.281-6.097,3.282-9.519,2.733
	l-233.776-37.55c-7.193-1.155-11.582-8.569-9.125-15.435l38.637-107.959c1.891-5.284,7.28-8.47,12.822-7.58l192.256,30.881
	c5.542,0.89,9.662,5.604,9.803,11.214L454.81,259.332z M225.083,212.792l206.071,33.1l-2.288-90.923l-173.137-27.81L225.083,212.792
	z"/>
<path style="fill:#696E73;" d="M383.462,192.317c-19.957-3.206-38.801,10.423-42.007,30.38s10.423,38.801,30.38,42.007
	s38.802-10.423,42.008-30.38C417.048,214.367,403.42,195.523,383.462,192.317z M373.684,253.193
	c-13.61-2.186-22.904-15.037-20.718-28.647c1.315-8.184,6.488-14.793,13.362-18.291c4.05-2.061,8.776,1.338,8.048,5.87
	c-0.966,4.388-0.4,7.319-3.15,10.132c-1.247,1.276-2.127,2.935-2.432,4.831c-0.432,2.691,0.386,5.29,2.019,7.218l-0.965,6.009
	l11.511,1.849l0.965-6.008c2.155-1.32,3.747-3.532,4.179-6.223c0.305-1.896-0.012-3.747-0.797-5.35
	c-1.732-3.534-0.269-6.184,0.181-10.609c0.724-4.509,6.275-6.285,9.481-3.054c5.434,5.474,8.277,13.372,6.962,21.556
	C400.145,246.086,387.294,255.379,373.684,253.193z"/>
<path style="fill:#373C41;" d="M377.727,265.177c-1.955,0-3.924-0.156-5.892-0.473c-9.668-1.553-18.152-6.777-23.891-14.712
	c-5.738-7.934-8.043-17.628-6.49-27.295c3.206-19.958,22.055-33.588,42.007-30.38c19.958,3.206,33.586,22.05,30.38,42.007
	c-1.553,9.668-6.777,18.152-14.711,23.891C392.812,262.784,385.376,265.177,377.727,265.177z M377.634,203.51
	c-12.053,0-22.697,8.763-24.668,21.036c-2.186,13.61,7.108,26.461,20.718,28.648c13.613,2.182,26.461-7.108,28.647-20.718
	s-7.108-26.461-20.718-28.647C380.277,203.614,378.947,203.51,377.634,203.51z"/>
<g style="opacity:0.22;">
	<path d="M237.68,355.424l10.792-67.184c2.476-15.414-8.013-29.917-23.427-32.393c-15.414-2.476-29.917,8.013-32.393,23.427
		l-9.127,56.824L237.68,355.424z"/>
	<path d="M430.342,386.371l10.792-67.184c2.476-15.414-8.013-29.917-23.427-32.393s-29.917,8.013-32.393,23.427l-9.127,56.824
		L430.342,386.371z"/>
</g>
<path style="fill:#E64B55;" d="M460.992,349.712c-1.985,12.358-13.612,20.766-25.969,18.781l-252.009-40.479
	c-12.358-1.985-20.766-13.612-18.781-25.969l7.472-46.517c5.304-33.019,36.37-55.486,69.389-50.182l177.188,28.461
	c33.019,5.304,55.486,36.37,50.182,69.389L460.992,349.712z"/>
<path style="fill:#50555A;" d="M164.3,309.289c1.521,9.368,8.828,17.137,18.714,18.725l252.009,40.479
	c9.886,1.588,19.258-3.502,23.636-11.923L164.3,309.289z"/>
<g>
	<path style="fill:#D72846;" d="M355.621,339.991l-87.419-14.042c-4.791-0.77-8.052-5.278-7.282-10.069l7.035-43.798
		c0.77-4.791,5.278-8.052,10.069-7.282l87.419,14.042c4.791,0.77,8.052,5.278,7.282,10.069l-7.035,43.798
		C364.921,337.5,360.413,340.76,355.621,339.991z"/>
	
		<ellipse transform="matrix(0.1586 -0.9873 0.9873 0.1586 -85.8105 450.0258)" style="fill:#D72846;" cx="221.138" cy="275.361" rx="24.813" ry="24.797"/>
	
		<ellipse transform="matrix(0.1586 -0.9873 0.9873 0.1586 46.7359 667.9427)" style="fill:#D72846;" cx="415.27" cy="306.55" rx="24.813" ry="24.797"/>
</g>
<g>
	
		<ellipse transform="matrix(0.1586 -0.9873 0.9873 0.1586 -79.3579 446.0955)" style="fill:#FAC855;" cx="222.059" cy="269.609" rx="24.813" ry="24.797"/>
	
		<ellipse transform="matrix(0.1586 -0.9873 0.9873 0.1586 53.2035 664.0175)" style="fill:#FAC855;" cx="416.201" cy="300.793" rx="24.813" ry="24.797"/>
</g>
<path style="fill:#B9B9BE;" d="M335.455,340.945l-48.401-7.774c-2.8-0.45-4.705-3.084-4.256-5.884l2.049-12.755
	c0.45-2.8,3.084-4.705,5.884-4.256l48.401,7.774c2.8,0.45,4.705,3.084,4.256,5.884l-2.049,12.755
	C340.89,339.489,338.256,341.395,335.455,340.945z"/>
<path style="fill:#D2D2D7;" d="M339.133,318.05l-48.401-7.774c-2.8-0.45-5.435,1.455-5.884,4.255l-0.924,5.756
	c0.45-2.8,3.084-4.705,5.884-4.255l48.401,7.774c2.8,0.45,4.706,3.084,4.256,5.884l0.924-5.756
	C343.838,321.134,341.933,318.5,339.133,318.05z"/>
<g>
	
		<ellipse transform="matrix(0.1586 -0.9873 0.9873 0.1586 53.2035 664.0175)" style="fill:#FAF58C;" cx="416.201" cy="300.793" rx="14.069" ry="14.059"/>
	
		<ellipse transform="matrix(0.1586 -0.9873 0.9873 0.1586 -79.3579 446.0955)" style="fill:#FAF58C;" cx="222.059" cy="269.609" rx="14.069" ry="14.059"/>
</g>
<path style="fill:#E64B55;" d="M353.98,287.744l-67.857-10.9c-3.952-0.635-7.671,2.054-8.305,6.006
	c-0.635,3.952,2.055,7.671,6.007,8.305l67.857,10.9c3.952,0.635,7.671-2.055,8.305-6.007S357.932,288.378,353.98,287.744z"/>
<path style="fill:#F75C66;" d="M400.632,255.956c-6.86,6.887-16.614,10.055-26.212,8.513l-106.181-17.055
	c-6.518-1.047-12.135-5.165-15.095-11.066l-15.857-31.615l184.799,29.683L400.632,255.956z"/>
<g>
	<path style="fill:#FA870A;" d="M164.233,302.045c-0.164,1.023-0.251,2.041-0.276,3.05l18.284,2.937
		c3.118,0.501,6.052-1.621,6.553-4.739l1.49-9.274c0.501-3.118-1.621-6.052-4.739-6.553l-18.492-2.97L164.233,302.045z"/>
	<path style="fill:#FA870A;" d="M460.992,349.712l2.819-17.551l-18.089-2.906c-3.118-0.501-6.052,1.621-6.553,4.739l-1.49,9.275
		c-0.501,3.118,1.621,6.052,4.739,6.553l17.881,2.872C460.591,351.729,460.827,350.736,460.992,349.712z"/>
</g>
<rect x="334.935" y="141.074" transform="matrix(-0.9873 -0.1586 0.1586 -0.9873 656.8107 342.5857)" style="fill:#696E73;" width="14.281" height="8.02"/>
<g style="opacity:0.38;">
	<polygon style="fill:#FFFFFF;" points="327.207,138.641 305.336,135.128 250.134,206.797 272.005,210.31 	"/>
</g>
<g style="opacity:0.36;">
	<polygon style="fill:#FFFFFF;" points="351.381,142.524 338.719,140.49 283.516,212.159 296.179,214.193 	"/>
</g>
<path style="fill:#373C41;" d="M175.579,376.873h87.847c4.453,0,8.063,3.61,8.063,8.063v16.541c0,4.453-3.61,8.063-8.063,8.063
	h-87.847c-4.453,0-8.063-3.61-8.063-8.063v-16.541C167.516,380.483,171.126,376.873,175.579,376.873z"/>
<path style="fill:#5F6E9B;" d="M123.64,342.886c-1.852-6.517-7.804-11.011-14.575-11.011c-0.015,0-0.03,0-0.045,0l-44.981,0.076
	l18.351-62.409c2.864-9.996-2.918-20.421-12.914-23.285c-4.381-1.255-8.87-1.874-13.341-1.874c-8.782,0-17.49,2.389-25.142,7.034
	c-11.547,7.01-19.643,18.523-22.334,31.76l-7.99,39.304c-1.991,9.792,0.522,19.961,6.845,27.699s15.787,12.226,25.78,12.226h21.789
	l-30.684,18.849c-7.131,4.381-9.361,13.712-4.98,20.843c2.861,4.657,7.833,7.223,12.926,7.223c2.705-0.001,5.444-0.724,7.917-2.244
	l76.734-47.139C122.781,356.385,125.496,349.417,123.64,342.886z"/>
<path style="fill:#CD2D23;" d="M69.475,246.257c-4.381-1.255-8.87-1.874-13.341-1.874c-8.782,0-17.49,2.389-25.142,7.034
	c-11.547,7.01-19.643,18.523-22.334,31.76l-7.99,39.304c-1.991,9.792,0.522,19.961,6.845,27.699s15.787,12.226,25.78,12.226h21.789
	l27.307-92.864C85.253,259.546,79.472,249.121,69.475,246.257z"/>
<path style="fill:#696E73;" d="M138.025,318.157c-0.882,0-1.779-0.144-2.659-0.449c-4.241-1.468-6.49-6.097-5.021-10.339
	l12.869-37.173c1.468-4.241,6.095-6.49,10.339-5.021c4.241,1.468,6.49,6.097,5.021,10.339l-12.869,37.173
	C144.541,316.047,141.392,318.157,138.025,318.157z"/>
<path style="fill:#BA6746;" d="M143.016,321.603c-0.208,0-0.417-0.005-0.629-0.015l-52.134-2.556
	c-3.819-0.187-7.347-2.095-9.595-5.187l-30.883-42.484c-4.101-5.641-2.852-13.538,2.789-17.639
	c5.642-4.102,13.538-2.851,17.639,2.789l27.328,37.593l46.094,2.259c6.966,0.341,12.336,6.265,11.994,13.23
	C155.287,316.348,149.706,321.603,143.016,321.603z"/>
<path style="fill:#BE1E14;" d="M69.722,298.8l20.66-14.53l-20.179-27.759c-4.101-5.64-11.997-6.891-17.639-2.789
	c-5.641,4.101-6.89,11.998-2.789,17.639L69.722,298.8z"/>
<path style="fill:#BA6746;" d="M63.475,231.974L63.475,231.974c21.078,18.129,53.389-3,44.67-29.756
	c-4.155-12.745-16.366-20.144-28.687-19.174c-0.1,0.008-0.199,0.02-0.299,0.029c-15.733,1.408-27.089,15.583-25.199,31.117
	C54.792,221.021,58.143,227.387,63.475,231.974z"/>
<g>
</g>
<g>
</g>
<g>
</g>
<g>
</g>
<g>
</g>
<g>
</g>
<g>
</g>
<g>
</g>
<g>
</g>
<g>
</g>
<g>
</g>
<g>
</g>
<g>
</g>
<g>
</g>
<g>
</g>
</svg>
